<svg xmlns="http://www.w3.org/2000/svg" xmlns:xlink="http://www.w3.org/1999/xlink" width="69" height="68" viewBox="0 0 69 68">
  <defs>
    <linearGradient id="linear-gradient" x1="0.532" y1="0.203" x2="0.5" y2="1.085" gradientUnits="objectBoundingBox">
      <stop offset="0" stop-color="#4b76cf"/>
      <stop offset="1" stop-color="#3c5da1"/>
    </linearGradient>
  </defs>
  <g id="Group_127" data-name="Group 127" transform="translate(-0.063 -0.131)">
    <g id="Group_104" data-name="Group 104" transform="translate(0)">
      <rect id="Rectangle_36" data-name="Rectangle 36" width="69" height="68" rx="34" transform="translate(0.063 0.13)" fill="url(#linear-gradient)"/>
    </g>
    <text id="f" transform="translate(26.063 49.13)" fill="#fff" font-size="39" font-family="Montserrat-Bold, Montserrat" font-weight="700"><tspan x="0" y="0">f</tspan></text>
  </g>
</svg>
