<svg id="henger_elol" xmlns="http://www.w3.org/2000/svg" xmlns:xlink="http://www.w3.org/1999/xlink" width="189.971" height="188.756" viewBox="0 0 189.971 188.756">
  <defs>
    <linearGradient id="linear-gradient" x1="0.366" y1="0.948" x2="0.84" y2="0.343" gradientUnits="objectBoundingBox">
      <stop offset="0" stop-color="#cc18bc"/>
      <stop offset="1" stop-color="#ff8340"/>
    </linearGradient>
    <linearGradient id="linear-gradient-2" x1="1" y1="1.184" x2="0.29" y2="0.169" gradientUnits="objectBoundingBox">
      <stop offset="0" stop-color="#3c5bb4"/>
      <stop offset="1" stop-color="#37cee6"/>
    </linearGradient>
  </defs>
  <path id="Path_75" data-name="Path 75" d="M1298.45,450.1c.9.316,1.812.6,2.729.864.275.079.554.152.833.225q1.008.273,2.029.506c.289.065.576.13.864.192q1.27.267,2.56.473c.089.014.18.034.269.047.949.144,1.9.259,2.866.354.277.028.554.047.833.071q1.065.089,2.138.141c.3.014.607.028.912.038q1.237.039,2.48.024c.156,0,.311,0,.465,0,.981-.018,1.964-.063,2.949-.129.271-.018.544-.043.817-.065.736-.059,1.473-.129,2.213-.214.317-.036.631-.071.948-.113q1.2-.154,2.407-.352c.2-.034.4-.061.6-.095q1.49-.258,2.983-.587c.259-.055.52-.121.779-.18.758-.174,1.513-.358,2.269-.558q.478-.125.953-.255,1.163-.323,2.328-.684c.234-.073.469-.14.7-.216q1.489-.478,2.976-1.018c.229-.085.459-.176.69-.263q1.16-.433,2.318-.9.472-.2.943-.393,1.121-.475,2.237-.983c.255-.115.51-.227.763-.346q1.469-.682,2.921-1.426c.194-.1.388-.206.581-.307q1.175-.614,2.342-1.262c.306-.17.611-.344.916-.518q1.071-.614,2.134-1.26c.261-.158.524-.313.785-.475.945-.587,1.887-1.189,2.82-1.812.145-.1.285-.2.429-.295q1.189-.807,2.365-1.651c.289-.206.574-.415.86-.627q1.009-.742,2.005-1.513c.263-.2.528-.4.789-.609.9-.71,1.79-1.432,2.67-2.175.075-.063.149-.129.224-.192q1.208-1.027,2.389-2.1c.265-.239.53-.484.793-.728q.938-.863,1.857-1.754c.253-.243.506-.486.758-.734.506-.5,1-1.013,1.5-1.525.415-.427.834-.85,1.246-1.288.475-.5.939-1.022,1.4-1.537.4-.443.807-.882,1.2-1.333.463-.53.916-1.074,1.37-1.614.381-.455.767-.9,1.141-1.363.457-.562.9-1.139,1.347-1.711.358-.459.72-.91,1.072-1.376.451-.6.886-1.21,1.325-1.82.33-.457.666-.908.991-1.371.453-.649.888-1.313,1.327-1.974.293-.441.593-.872.88-1.319.475-.736.928-1.487,1.384-2.237.235-.388.481-.765.712-1.157q1.017-1.721,1.976-3.487c.841-1.554,1.618-3.113,2.362-4.673.13-.273.267-.546.393-.819q.712-1.525,1.361-3.052c.049-.113.1-.227.15-.342.477-1.131.922-2.261,1.347-3.39.129-.34.247-.682.37-1.022q.436-1.2.839-2.4c.132-.4.259-.793.385-1.191q.365-1.154.7-2.3c.107-.372.218-.744.319-1.113q.389-1.421.724-2.836c.041-.172.089-.346.128-.518.257-1.111.484-2.219.692-3.323.061-.316.111-.633.166-.949.139-.793.269-1.584.384-2.371q.083-.575.156-1.149c.1-.742.18-1.479.255-2.215.036-.366.075-.734.107-1.1.075-.866.131-1.725.174-2.581.012-.212.029-.425.037-.637q.068-1.593.061-3.162c0-.283-.012-.562-.016-.844-.012-.767-.034-1.533-.069-2.29-.018-.362-.041-.72-.065-1.078q-.068-1.038-.168-2.069c-.034-.348-.068-.7-.1-1.042q-.134-1.163-.311-2.306c-.034-.229-.061-.461-.1-.69q-.243-1.471-.552-2.913c-.051-.239-.113-.475-.168-.714-.164-.72-.338-1.436-.528-2.142-.089-.326-.184-.651-.277-.975q-.273-.94-.576-1.865c-.1-.313-.2-.625-.312-.934q-.4-1.16-.858-2.292c-.063-.156-.119-.318-.184-.473q-.558-1.35-1.189-2.65c-.113-.237-.235-.469-.354-.7-.32-.639-.653-1.272-1-1.893-.152-.273-.308-.546-.467-.817q-.543-.929-1.125-1.826c-.137-.21-.267-.425-.406-.635q-.792-1.181-1.649-2.31c-.115-.148-.235-.289-.35-.437q-.709-.9-1.46-1.77c-.2-.231-.408-.457-.611-.684q-.686-.756-1.408-1.481c-.2-.206-.4-.413-.613-.613-.68-.661-1.378-1.305-2.1-1.922l52.052,44.186c.728.617,1.424,1.262,2.106,1.922.208.2.409.409.613.613q.721.727,1.406,1.481c.206.227.412.453.613.684q.751.866,1.456,1.768c.116.148.239.291.354.441q.861,1.124,1.648,2.308c.141.21.271.423.408.635q.581.9,1.125,1.825c.158.271.312.544.466.819.346.619.677,1.25,1,1.887.118.237.241.469.356.708q.629,1.3,1.189,2.648c.063.156.121.316.184.473q.453,1.133.858,2.292c.043.123.095.239.136.362.063.188.113.382.176.57q.3.929.576,1.873c.093.32.188.643.275.967.19.708.366,1.426.53,2.148.055.237.117.471.168.712q.309,1.439.55,2.911c.038.23.065.461.1.69.115.763.219,1.531.309,2.306.039.346.071.7.107,1.044.065.684.122,1.374.168,2.067.021.36.045.718.063,1.078q.055,1.139.069,2.292c0,.281.016.56.018.842,0,1.046-.016,2.1-.061,3.162-.008.21-.028.423-.037.635q-.065,1.285-.174,2.585c-.031.364-.071.73-.107,1.1-.075.738-.16,1.475-.255,2.219-.049.382-.1.762-.156,1.145-.115.789-.245,1.582-.385,2.377-.055.316-.1.631-.164.947-.208,1.1-.435,2.209-.692,3.321-.04.172-.089.346-.129.518-.226.943-.465,1.889-.724,2.836-.1.37-.212.742-.32,1.113q-.329,1.151-.7,2.306-.187.593-.386,1.191-.4,1.2-.837,2.4c-.125.342-.241.682-.37,1.023-.425,1.129-.87,2.259-1.347,3.39-.048.115-.1.229-.15.344q-.65,1.525-1.361,3.05c-.055.119-.1.237-.16.356-.071.154-.16.309-.234.463-.744,1.56-1.521,3.119-2.363,4.673q-.956,1.768-1.974,3.487c-.231.392-.477.771-.714,1.157-.455.75-.91,1.5-1.383,2.237-.287.447-.59.88-.882,1.321-.439.659-.874,1.323-1.325,1.972-.324.465-.663.914-.991,1.373-.441.609-.876,1.22-1.325,1.82-.352.465-.714.916-1.072,1.375-.447.573-.89,1.149-1.347,1.711-.374.461-.76.908-1.141,1.361-.455.542-.908,1.086-1.372,1.618-.4.451-.8.888-1.2,1.331-.467.516-.93,1.032-1.4,1.535-.413.439-.835.864-1.252,1.293-.364.374-.722.757-1.09,1.125-.135.134-.273.263-.409.4-.249.245-.5.486-.753.73q-.923.893-1.861,1.758c-.263.243-.526.487-.791.726q-1.178,1.062-2.375,2.085c-.081.067-.16.138-.24.208-.88.742-1.772,1.463-2.67,2.174-.261.2-.524.4-.785.605q-1,.771-2.005,1.515c-.289.21-.576.421-.864.631q-1.175.842-2.363,1.645c-.144.1-.285.2-.429.3q-1.4.935-2.818,1.81c-.263.164-.528.32-.793.483q-1.059.641-2.128,1.254c-.3.174-.609.348-.916.518q-1.166.65-2.341,1.262c-.194.1-.388.208-.584.307q-1.453.745-2.919,1.428c-.253.117-.506.227-.761.344q-1.115.51-2.241.985c-.314.133-.627.263-.941.39q-1.157.475-2.318.906c-.232.087-.461.178-.692.263q-1.484.54-2.975,1.019c-.235.075-.471.142-.706.216q-1.163.362-2.326.684c-.319.087-.635.172-.953.255-.756.2-1.513.384-2.268.558-.259.059-.521.125-.781.182-.993.216-1.988.413-2.98.585-.2.036-.406.061-.609.095q-1.2.2-2.4.352c-.316.042-.631.077-.947.115q-1.11.125-2.215.212c-.271.022-.544.047-.815.065-.985.065-1.97.111-2.949.129-.154,0-.308,0-.465,0q-1.243.015-2.48-.024c-.3-.01-.609-.024-.911-.038q-1.074-.05-2.138-.141c-.279-.024-.556-.043-.835-.071-.959-.095-1.914-.21-2.862-.354-.093-.014-.184-.034-.275-.047-.859-.136-1.709-.295-2.558-.473-.289-.059-.575-.127-.862-.192q-1.021-.231-2.031-.5c-.277-.075-.556-.148-.83-.227-.918-.265-1.829-.548-2.731-.864a47.13,47.13,0,0,1-7.725-3.52,44.347,44.347,0,0,1-6.687-4.685L1284.037,441.9A45.46,45.46,0,0,0,1298.45,450.1Z" transform="translate(-1267.015 -308.471)" fill="url(#linear-gradient)"/>
  <g id="Group_22" data-name="Group 22" transform="translate(0 0)" style="isolation: isolate">
    <path id="Path_76" data-name="Path 76" d="M1381.909,316.934c-31.952-11.249-74.644,10.684-95.368,48.983-20.717,38.283-11.629,78.449,20.325,89.7s74.658-10.678,95.375-48.963S1413.862,328.186,1381.909,316.934Z" transform="translate(-1275.43 -313.986)" fill="url(#linear-gradient-2)"/>
  </g>
</svg>
